<svg xmlns="http://www.w3.org/2000/svg" width="24" height="15" viewBox="0 0 24 15">
    <path fill="#FFF" fill-rule="nonzero" d="M12 9.406L20.766.82a1 1 0 0 1 1.406.008l1.535 1.535a1 1 0 0 1-.004 1.418L12.707 14.707A.993.993 0 0 1 12 15a.993.993 0 0 1-.707-.293L.297 3.781a1 1 0 0 1-.004-1.418L1.828.828A1 1 0 0 1 3.234.82L12 9.406z"/>
</svg>
